count_enrolled = range1 [-∞ - 87.400]	count_voted = range1 [-∞ - 13], count_finished = range1 [-∞ - 55.200]	0.5922330097087378	0.9242424242424242

18101 | 18102 | 18104 | 18105	percent_voted = range1 [-∞ - 25.750]	0.18446601941747573	0.95

rating_materials = range1 [-∞ - 1.600], rating_difficulty = range2 [1.800 - 2.600]	rating_topic = range1 [-∞ - 1.800]	0.06310679611650485	0.9285714285714286

rating_materials = range2 [1.600 - 2.200], count_voted = range2 [13 - 25]	percent_finished = range4 [79.250 - ∞]	0.05339805825242718	0.9166666666666666

rating_specifications = range2 [0.600 - 1.200], count_finished = range2 [55.200 - 107.400]	rating_topic = range1 [-∞ - 1.800]	0.05339805825242718	0.9166666666666666

rating_topic = range1 [-∞ - 1.800], 18103	count_finished = range1 [-∞ - 55.200]	0.05825242718446602	1.0

semester = b142, rating_specifications = range4 [1.800 - 2.400]	count_finished = range1 [-∞ - 55.200]	0.06796116504854369	0.9333333333333333

percent_finished = range4 [79.250 - ∞], rating_work_during_semester = range1 [-∞ - 1.400]	rating_difficulty = range3 [2.600 - 3.400]	0.07281553398058252	0.9375
percent_finished = range3 [58.500 - 79.250], rating_materials = range3 [2.200 - 2.800]	rating_specifications = range3 [1.200 - 1.800]	0.05339805825242718	0.9166666666666666
count_enrolled = range1 [-∞ - 87.400], percent_finished = range1 [-∞ - 37.750]	rating_topic = range1 [-∞ - 1.800]	0.05339805825242718	0.9166666666666666
rating_specifications = range2 [0.600 - 1.200], count_finished = range2 [55.200 - 107.400]	rating_topic = range1 [-∞ - 1.800]	0.05339805825242718	0.9166666666666666
rating_materials = range1 [-∞ - 1.600], rating_difficulty = range2 [1.800 - 2.600]	rating_topic = range1 [-∞ - 1.800]	0.06310679611650485	0.9285714285714286

Moucha Alexandru Ing. Ph.D.	count_finished = range1 [-∞ - 55.200]	0.02912621359223301	1.0
rating_specifications = range5 [2.400 - ∞]	count_finished = range1 [-∞ - 55.200]	0.024271844660194174	1.0

rating_difficulty = range3 [2.600 - 3.400]	percent_voted = range1 [-∞ - 25.750]	0.5388349514563107	0.940677966101695