﻿18101,18102,18103,18104,18105
"","Sýkora Tomáš","","",""
"Kordík Pavel Ing. Ph.D.","","","",""
"Scholtzová Jiřina RNDr. Ph.D.","","","",""
"","Kučera Zdeněk JUDr. Ph.D.","","",""
"","","Myslivec Vojtěch Bc.","",""
"","","Hyniová Kateřina doc.Ing. CSc.","",""
"","Spejchal Petr Mgr.","","",""
"","","","Čejka Tomáš Ing.",""
"","Pavelka Jiří Ing.","","",""
"","Podloucký Martin Mgr.","","",""
"","","","Žďárek Jan Ing. Ph.D.",""
"","Kuchař Jaroslav Ing.","","",""
"","","","","Zhouf Jaroslav doc. RNDr. Ph.D."
"","Wallenfelsová Helena RNDr.","","",""
"","Dohnal Jan prof.Ing. CSc.","","",""
"","","Prokš Michal Ing.","",""
"","","","","Starosta Štěpán Ing. Ph.D."
"","Rubáš Michal Mgr.","","",""
"","","","","Kleprlík Luděk Mgr. Ph.D."
"","","Schmidt Jan Ing. Ph.D.","",""
"","Schmidt Jan Ing. Ph.D.","","",""
"","Voříšek Jiří prof.Ing. CSc.","","",""
"","Daněček Jiří Ing.","","",""
"","","","Vagner Ladislav Ing. Ph.D.",""
"","Půlpitel Martin Ing.","","",""
"","Buchtela David Ing. Ph.D.","","",""
"","","Bělohoubek Jan Ing.","",""
"Nováček Tomáš","","","",""
"Melichar Bořivoj prof.Ing. DrSc.","","","",""
"","Žehra Marek Ing.","","",""
"","","Novotný Martin Dr.-Ing.","",""
"","Havryluk Michal Ing.","","",""
"Kopp Martin Ing.","","","",""
"","Jirkovský Vojtěch Ing.","","",""
"","","","","Blažek Rudolf Bohumil Mgr. Ph.D."
"","Cvrček Václav Ing. Ph.D.","","",""
"","","Borecký Jaroslav Ing.","",""
"Vogel Josef Ing. CSc.","","","",""
"","","Bartík Matěj Ing.","",""
"","Libánská Alena Mgr.","","",""
"Richtr Radek Ing.","","","",""
"","","Daňhel Martin Ing.","",""
"","Chrastina Jan Ing.","","",""
"","","","Kobrle Daniel Ing.",""
"Chludil Jiří Ing.","","","",""
"Trávníček Jan Ing.","","","",""
"","","Nový Zdeněk Bc.","",""
"","","","Moucha Alexandru Ing. Ph.D.",""
"","Hunka Jiří Ing.","","",""
"Janoušek Jan doc.Ing. Ph.D.","","","",""
"","Svátek Vojtěch doc.Ing. CSc.","","",""
"","","","Buček Jiří Ing.",""
"","Bařinka Lukáš Ing.","","",""
"","","","","Štampach František Ing. Ph.D."
"","Arnošt Daniel Ing. CSc.","","",""
"","Efmertová Marcela prof.PhDr. CSc.","","",""
"","Skopal Tomáš doc.RNDr. Ph.D.","","",""
"","","Kubalík Pavel Ing. Ph.D.","",""
"","Klímek Jakub RNDr. Ph.D.","","",""
"","","","","Strmisková Lucie Ing."
"Jirkovský Vojtěch Ing.","","","",""
"","","Štěpánek Filip Ing.","",""
"","","Král Jakub","",""
"","","","Trdlička Jan Ing. Ph.D.",""
"","","Jeřábek Stanislav Bc.","",""
"","","","Bařinka Lukáš Ing.",""
"Svoboda Roman","","","",""
"","Novák Jiří Ing. Ph.D.","","",""
"","","Pluháček Alois doc.Ing. CSc.","",""
"","","Kohlík Martin Ing.","",""
"","Ledvinka Martin Ing.","","",""
"Kolář Josef doc.RNDr. CSc.","","","",""
"Guth Ondřej Ing. Ph.D.","","","",""
"","Balík Miroslav Ing. Ph.D.","","",""
"Polách Radomír Ing.","","","",""
"","","","","Kalvoda Tomáš Ing. Ph.D."
"","Špaček Petr Ing. Ph.D.","","",""
"Valla Tomáš RNDr. Ph.D.","","","",""
"","Součková Monika Mgr.","","",""
"","Rybola Zdeněk Ing.","","",""
"","","","Šimeček Ivan Ing. Ph.D.",""
"","","","Šoch Michal Ing. Ph.D.",""
"Šimeček Ivan Ing. Ph.D.","","","",""
"","","","Kokeš Josef Ing.",""
"","Chludil Jiří Ing.","","",""
"","Valenta Michal Ing. Ph.D.","","",""
"","","","Kašpar Jiří Ing.",""
"","","Douša Jiří doc.Ing. CSc.","",""
"","Sýkora Daniel doc. Ing. Ph.D.","","",""
"Řehořek Tomáš Ing.","","","",""
"","","Skrbek Miroslav Ing. Ph.D.","",""
"","Zýka Ondřej RNDr.","","",""
"","","","Jirkovský Vojtěch Ing.",""
"","Valentová Kateřina PhDr.","","",""
"","Mlejnek Jiří Ing.","","",""
"","","","","Nollová Marta RNDr."
"","","","Blažek Zdeněk Ing. CSc.",""
"","","Zimmerhakl Tomáš","",""
"Plachý Štěpán","","","",""
"","Bláha Michael Bc.","","",""
"","","","Igliar Radovan Ing.",""
"","","","Ubik Sven Dr.Ing.",""
"","Klíma František Ing. CSc.","","",""
"","","Dobiáš Radek Ing. Ph.D., MBA.","",""
"","Skoumal Vladislav Ing.","","",""
"","","","","Hrabáková Jitka Ing."
"","Nič Miloslav Ing. Ph.D.","","",""
"Motl Jan Ing.","","","",""
"Blažej Václav","","","",""
"","Gála Libor Ing.","","",""
"","","Kubátová Hana doc.Ing. CSc.","",""
"","Znamenáček Jiří","","",""
"","","","Muzikář Zdeněk Ing. CSc.",""
"","Zamarovský Peter RNDr. CSc.","","",""
"","","","Melnikov Jiří Ing.",""
"","","","Znamenáček Jiří",""
"","","","","Vašata Daniel Ing."
"","","","Čermáková Dana RNDr.",""
"","","","Zahradnický Tomáš Ing. Ph.D.",""
"","Štrobl Roman Ing.","","",""
"","Pergl Robert Ing. Ph.D.","","",""
"","Stuchlík Ondřej Ing.","","",""
"","Pavlíček Josef Ing. Ph.D.","","",""
"Bernhauer David","","","",""
"Podloucký Martin Mgr.","","","",""
"","","","Smotlacha Vladimír RNDr.Ing. Ph.D.",""
"","","","","Petr Ivo Ing."
"","Vozárová Pavla Ing. Mgr. Ph.D., M.A.","","",""
"","Kuznetsov Stanislav Ing.","","",""
"","Krátký Tomáš Ing.","","",""
"","","Fišer Petr doc.Ing. Ph.D.","",""
"Vagner Ladislav Ing. Ph.D.","","","",""
"","","","Černý Viktor Ing.",""
"","Kadlec Tomáš Ing.","","",""
"","","","Tvrdík Pavel prof.Ing. CSc.",""
"","","Vít Pavel Ing.","",""
"","","","Cimbál Pavel Ing.",""
"","","","","Rybníčková Jitka Mgr. Ph.D."
"","Janoušek Ivo Ing. CSc.","","",""
"","","","Lórencz Róbert prof.Ing. CSc.",""
"","Vogel Josef Ing. CSc.","","",""
"","Halaška Ivan Ing.","","",""
"Jiřina Marcel doc.RNDr.Ing. Ph.D.","","","",""
"","Kloudová Jitka doc.Ing. Ph.D.","","",""
"","Štěpán Pavel Ing.","","",""
"","","","Smítka Jiří Ing.",""
"Holeňa Martin doc.Ing.RNDr. CSc.","","","",""
"","","","Kubalík Pavel Ing. Ph.D.",""
"Kačer Martin Ing. Ph.D.","","","",""
"Kessl Robert Ing. Ph.D.","","","",""
"","","","","Dombek Daniel Ing. Ph.D."
"","Vynikarová Dana Ing. Ph.D.","","",""
"","Bradáč Jan Bc.","","",""
"","","","Novotný Martin Dr.-Ing.",""
"","Pavlíčková Petra Ing. Ph.D.","","",""
"","Ratschan Stefan Dipl.-Ing. Dr. techn.","","",""
"","Dojčinovski Milan Ing.","","",""
"","","","","Šolcová Alena doc.RNDr. Ph.D."
"Šlapák Martin Ing.","","","",""
"","","","Trofimova Yelena Ing.",""
"Kučera Luděk prof.RNDr. DrSc.","","","",""
"","Čermák Ondřej Ing.","","",""
"","","Mudrik Miroslav","",""
"","Svoboda Martin RNDr.","","",""
"","Šebesta Michal Ing.","","",""
"","","","Zahradník Jakub Ing.",""
"Suchý Ondřej RNDr. Ph.D.","","","",""
"","","","","Kupsa Michal Mgr. Ph.D."
"Sikora Miroslav Ing.","","","",""
"","","","","Matyáš Petr Mgr."
"","","","Myslivec Vojtěch Bc.",""
"","","","","Klouda Karel Ing. Ph.D."
"Holub Jan prof. Ing. Ph.D.","","","",""
"","Veselý Dominik Ing.","","",""
"","Vitvar Tomáš doc.Ing. Ph.D.","","",""
"Olšák Petr RNDr.","","","",""
"Hunka Jiří Ing.","","","",""
