120	count_voted = range1 [-∞ - 0.500]	percent_voted = range1 [-∞ - 0.500]	0.3724340175953079	1.0	1.0	-0.3724340175953079	0.23263473826334483	2.6640625	Infinity
121	semester = b151, count_voted = range1 [-∞ - 0.500]	percent_voted = range1 [-∞ - 0.500]	0.19941348973607037	1.0	1.0	-0.19941348973607037	0.12456033229848384	2.6640625	Infinity
122	semester = b142, percent_voted = range1 [-∞ - 0.500]	count_voted = range1 [-∞ - 0.500]	0.17302052785923755	1.0	1.0	-0.17302052785923755	0.10858179754216081	2.6850393700787403	Infinity
123	semester = b142, count_voted = range1 [-∞ - 0.500]	percent_voted = range1 [-∞ - 0.500]	0.17302052785923755	1.0	1.0	-0.17302052785923755	0.108074405964861	2.6640625	Infinity
124	percent_voted = range1 [-∞ - 0.500], count_finished = range1 [-∞ - 4.500]	count_voted = range1 [-∞ - 0.500]	0.1906158357771261	1.0	1.0	-0.1906158357771261	0.1196240142413636	2.6850393700787403	Infinity
125	count_voted = range1 [-∞ - 0.500], count_finished = range1 [-∞ - 4.500]	percent_voted = range1 [-∞ - 0.500]	0.1906158357771261	1.0	1.0	-0.1906158357771261	0.11906502352060956	2.6640625	Infinity
126	percent_voted = range1 [-∞ - 0.500], count_enrolled = range1 [-∞ - 9.500]	count_voted = range1 [-∞ - 0.500]	0.17595307917888564	1.0	1.0	-0.17595307917888564	0.11042216699202793	2.6850393700787403	Infinity
127	count_voted = range1 [-∞ - 0.500], count_enrolled = range1 [-∞ - 9.500]	percent_voted = range1 [-∞ - 0.500]	0.17595307917888564	1.0	1.0	-0.17595307917888564	0.10990617555748575	2.6640625	Infinity
128	count_voted = range1 [-∞ - 0.500], percent_finished = range1 [-∞ - 40.500]	percent_voted = range1 [-∞ - 0.500]	0.12609970674486803	1.0	1.0	-0.12609970674486803	0.07876609248286479	2.6640625	Infinity
129	percent_voted = range1 [-∞ - 0.500], count_finished = range2 [4.500 - 10.500]	count_voted = range1 [-∞ - 0.500]	0.12609970674486803	1.0	1.0	-0.12609970674486803	0.07913588634428669	2.6850393700787403	Infinity
130	count_voted = range1 [-∞ - 0.500], count_finished = range2 [4.500 - 10.500]	percent_voted = range1 [-∞ - 0.500]	0.12609970674486803	1.0	1.0	-0.12609970674486803	0.07876609248286479	2.6640625	Infinity
131	percent_voted = range1 [-∞ - 0.500], count_enrolled = range2 [9.500 - 19.500]	count_voted = range1 [-∞ - 0.500]	0.13196480938416422	1.0	1.0	-0.13196480938416422	0.08281662524402095	2.6850393700787403	Infinity
132	count_voted = range1 [-∞ - 0.500], count_enrolled = range2 [9.500 - 19.500]	percent_voted = range1 [-∞ - 0.500]	0.13196480938416422	1.0	1.0	-0.13196480938416422	0.0824296316681143	2.6640625	Infinity
119	percent_voted = range1 [-∞ - 0.500]	count_voted = range1 [-∞ - 0.500]	0.3724340175953079	0.9921875	0.9978678038379531	-0.3782991202346041	0.23263473826334483	2.6640625	80.32844574780059
118	semester = b151, percent_voted = range1 [-∞ - 0.500]	count_voted = range1 [-∞ - 0.500]	0.19941348973607037	0.9855072463768116	0.9975609756097561	-0.20527859237536655	0.12405294072118402	2.646125756019628	43.302052785923756
117	count_enrolled = range5 [98 - ∞], count_voted = range5 [9.500 - ∞]	count_finished = range5 [64.500 - ∞]	0.15249266862170088	0.9811320754716981	0.9974619289340102	-0.15835777126099707	0.12104299068635462	4.848783155592015	42.27565982404692
116	percent_voted = range1 [-∞ - 0.500], percent_finished = range1 [-∞ - 40.500]	count_voted = range1 [-∞ - 0.500]	0.12609970674486803	0.9772727272727273	0.9974025974025974	-0.13196480938416422	0.07804370447450573	2.624015748031496	27.612903225806452
115	semester = b151, count_finished = range5 [64.500 - ∞]	count_enrolled = range5 [98 - ∞]	0.11143695014662756	0.926829268292683	0.9921465968586387	-0.12903225806451613	0.08710795400796346	4.580417108518911	10.901270772238513
114	count_finished = range5 [64.500 - ∞], count_voted = range5 [9.500 - ∞]	count_enrolled = range5 [98 - ∞]	0.15249266862170088	0.896551724137931	0.9849624060150376	-0.18768328445747798	0.11807603993773705	4.430784607696152	7.710654936461388
112	count_finished = range5 [64.500 - ∞]	count_enrolled = range5 [98 - ∞]	0.17888563049853373	0.8840579710144928	0.9804878048780488	-0.2258064516129032	0.13794171016761123	4.369040117622348	6.879765395894428
113	count_enrolled = range5 [98 - ∞]	count_finished = range5 [64.500 - ∞]	0.17888563049853373	0.8840579710144928	0.9804878048780488	-0.2258064516129032	0.13794171016761123	4.369040117622348	6.879765395894428
110	count_finished = range1 [-∞ - 4.500], count_enrolled = range1 [-∞ - 9.500]	percent_voted = range1 [-∞ - 0.500]	0.15249266862170088	0.8813559322033898	0.9825	-0.19354838709677422	0.08754654672732433	2.3479872881355934	5.264767490573942
111	count_finished = range1 [-∞ - 4.500], count_enrolled = range1 [-∞ - 9.500]	count_voted = range1 [-∞ - 0.500]	0.15249266862170088	0.8813559322033898	0.9825	-0.19354838709677422	0.08805393830462414	2.3664753770185505	5.289484708839548
107	count_finished = range1 [-∞ - 4.500]	percent_voted = range1 [-∞ - 0.500]	0.1906158357771261	0.8783783783783784	0.9783132530120482	-0.2434017595307918	0.10915798797739958	2.3400548986486487	5.135874877810362
108	count_finished = range1 [-∞ - 4.500]	count_voted = range1 [-∞ - 0.500]	0.1906158357771261	0.8783783783783784	0.9783132530120482	-0.2434017595307918	0.10979437741333493	2.3584805277718663	5.159986966438579
109	count_finished = range1 [-∞ - 4.500]	percent_voted = range1 [-∞ - 0.500], count_voted = range1 [-∞ - 0.500]	0.1906158357771261	0.8783783783783784	0.9783132530120482	-0.2434017595307918	0.10979437741333493	2.3584805277718663	5.159986966438579
106	semester = b151, count_finished = range5 [64.500 - ∞]	count_voted = range5 [9.500 - ∞]	0.10557184750733138	0.8780487804878049	0.9869109947643979	-0.1348973607038123	0.08159544551560444	4.403156384505022	6.5648093841642225
104	percent_voted = range1 [-∞ - 0.500], count_enrolled = range1 [-∞ - 9.500]	count_finished = range1 [-∞ - 4.500]	0.15249266862170088	0.8666666666666667	0.9800498753117207	-0.1994134897360704	0.11430930246557908	3.9936936936936935	5.872434017595308
105	count_voted = range1 [-∞ - 0.500], count_enrolled = range1 [-∞ - 9.500]	count_finished = range1 [-∞ - 4.500]	0.15249266862170088	0.8666666666666667	0.9800498753117207	-0.1994134897360704	0.11430930246557908	3.9936936936936935	5.872434017595308
103	semester = b151, count_enrolled = range5 [98 - ∞]	count_finished = range5 [64.500 - ∞]	0.11143695014662756	0.8636363636363636	0.9844155844155844	-0.14662756598240467	0.08532778355879292	4.268115942028985	5.849462365591398
102	count_voted = range5 [9.500 - ∞]	count_finished = range5 [64.500 - ∞]	0.17008797653958943	0.8529411764705882	0.9755501222493888	-0.2287390029325513	0.12973744635839043	4.215260017050299	5.424046920821114
101	count_finished = range5 [64.500 - ∞], count_enrolled = range5 [98 - ∞]	count_voted = range5 [9.500 - ∞]	0.15249266862170088	0.8524590163934426	0.9776119402985075	-0.20527859237536658	0.11682046078035105	4.274831243972999	5.426197458455523
100	count_finished = range5 [64.500 - ∞]	count_voted = range5 [9.500 - ∞]	0.17008797653958943	0.8405797101449275	0.973170731707317	-0.2346041055718475	0.12973744635839043	4.215260017050299	5.021860837110104
99	semester = b151, count_voted = range5 [9.500 - ∞]	count_finished = range5 [64.500 - ∞]	0.10557184750733138	0.8372093023255814	0.9817708333333334	-0.14662756598240467	0.08005607106922026	4.137512639029323	4.899874319229158
96	count_enrolled = range1 [-∞ - 9.500]	percent_voted = range1 [-∞ - 0.500]	0.17595307917888564	0.821917808219178	0.9685990338164252	-0.25219941348973607	0.09559601310618245	2.189640410958904	3.5075569591698623
97	count_enrolled = range1 [-∞ - 9.500]	count_voted = range1 [-∞ - 0.500]	0.17595307917888564	0.821917808219178	0.9685990338164252	-0.25219941348973607	0.09622380268487545	2.2068816740373207	3.52402436273404
98	count_enrolled = range1 [-∞ - 9.500]	percent_voted = range1 [-∞ - 0.500], count_voted = range1 [-∞ - 0.500]	0.17595307917888564	0.821917808219178	0.9685990338164252	-0.25219941348973607	0.09622380268487545	2.2068816740373207	3.52402436273404
95	count_enrolled = range1 [-∞ - 9.500]	count_finished = range1 [-∞ - 4.500]	0.17302052785923755	0.8082191780821918	0.9661835748792271	-0.25513196480938416	0.126564099035956	3.724361347649019	4.082739840804357
93	percent_voted = range1 [-∞ - 0.500], count_finished = range1 [-∞ - 4.500]	count_enrolled = range1 [-∞ - 9.500]	0.15249266862170088	0.8	0.9679802955665024	-0.2287390029325513	0.11168634600665629	3.736986301369863	3.929618768328446
94	count_voted = range1 [-∞ - 0.500], count_finished = range1 [-∞ - 4.500]	count_enrolled = range1 [-∞ - 9.500]	0.15249266862170088	0.8	0.9679802955665024	-0.2287390029325513	0.11168634600665629	3.736986301369863	3.929618768328446
92	count_finished = range1 [-∞ - 4.500]	count_enrolled = range1 [-∞ - 9.500]	0.17302052785923755	0.7972972972972973	0.963855421686747	-0.26099706744868034	0.126564099035956	3.724361347649019	3.8772238514174
91	count_voted = range5 [9.500 - ∞]	count_enrolled = range5 [98 - ∞]	0.15542521994134897	0.7794117647058824	0.9633251833740831	-0.24340175953079177	0.11507468976014998	3.8518755328218246	3.6160312805474097
90	count_enrolled = range5 [98 - ∞]	count_voted = range5 [9.500 - ∞]	0.15542521994134897	0.7681159420289855	0.9609756097560976	-0.24926686217008795	0.11507468976014998	3.8518755328218246	3.4525293255131966
89	count_voted = range5 [9.500 - ∞]	count_finished = range5 [64.500 - ∞], count_enrolled = range5 [98 - ∞]	0.15249266862170088	0.7647058823529411	0.960880195599022	-0.24633431085043986	0.11682046078035105	4.274831243972999	3.4897360703812317
87	count_finished = range5 [64.500 - ∞]	count_enrolled = range5 [98 - ∞], count_voted = range5 [9.500 - ∞]	0.15249266862170088	0.7536231884057971	0.9585365853658537	-0.25219941348973607	0.12104299068635462	4.848783155592015	3.427979989649819
88	count_enrolled = range5 [98 - ∞]	count_finished = range5 [64.500 - ∞], count_voted = range5 [9.500 - ∞]	0.15249266862170088	0.7536231884057971	0.9585365853658537	-0.25219941348973607	0.11807603993773705	4.430784607696152	3.368466448162843
85	count_finished = range4 [22.500 - 64.500]	count_enrolled = range4 [40.500 - 98]	0.1436950146627566	0.7205882352941176	0.9535452322738387	-0.25513196480938416	0.10392927477403877	3.613538062283737	2.865256984102485
86	count_enrolled = range4 [40.500 - 98]	count_finished = range4 [22.500 - 64.500]	0.1436950146627566	0.7205882352941176	0.9535452322738387	-0.25513196480938416	0.10392927477403877	3.613538062283737	2.865256984102485
82	count_enrolled = range2 [9.500 - 19.500]	percent_voted = range1 [-∞ - 0.500]	0.13196480938416422	0.7142857142857143	0.9554455445544553	-0.2375366568914956	0.06261556058169433	1.9029017857142858	2.186217008797654
83	count_enrolled = range2 [9.500 - 19.500]	count_voted = range1 [-∞ - 0.500]	0.13196480938416422	0.7142857142857143	0.9554455445544553	-0.2375366568914956	0.06315735158796364	1.9178852643419573	2.196480938416422
84	count_enrolled = range2 [9.500 - 19.500]	percent_voted = range1 [-∞ - 0.500], count_voted = range1 [-∞ - 0.500]	0.13196480938416422	0.7142857142857143	0.9554455445544553	-0.2375366568914956	0.06315735158796364	1.9178852643419573	2.196480938416422
80	count_enrolled = range1 [-∞ - 9.500]	percent_voted = range1 [-∞ - 0.500], count_finished = range1 [-∞ - 4.500]	0.15249266862170088	0.7123287671232876	0.9492753623188406	-0.2756598240469208	0.11168634600665629	3.736986301369863	2.8135735232509425
81	count_enrolled = range1 [-∞ - 9.500]	count_voted = range1 [-∞ - 0.500], count_finished = range1 [-∞ - 4.500]	0.15249266862170088	0.7123287671232876	0.9492753623188406	-0.2756598240469208	0.11168634600665629	3.736986301369863	2.8135735232509425
78	count_finished = range1 [-∞ - 4.500]	percent_voted = range1 [-∞ - 0.500], count_enrolled = range1 [-∞ - 9.500]	0.15249266862170088	0.7027027027027027	0.946987951807229	-0.281524926686217	0.11430930246557908	3.9936936936936935	2.7717941882164756
79	count_finished = range1 [-∞ - 4.500]	count_voted = range1 [-∞ - 0.500], count_enrolled = range1 [-∞ - 9.500]	0.15249266862170088	0.7027027027027027	0.946987951807229	-0.281524926686217	0.11430930246557908	3.9936936936936935	2.7717941882164756
77	percent_voted = range5 [13.500 - ∞]	semester = b151	0.12316715542521994	0.7	0.9551122194513714	-0.22873900293255134	0.03183667151125291	1.348587570621469	1.6031280547409579
74	count_finished = range2 [4.500 - 10.500]	percent_voted = range1 [-∞ - 0.500]	0.12609970674486803	0.671875	0.948148148148148	-0.24926686217008798	0.055649676215374824	1.7899169921875	1.9036447423544198
75	count_finished = range2 [4.500 - 10.500]	count_voted = range1 [-∞ - 0.500]	0.12609970674486803	0.671875	0.948148148148148	-0.24926686217008798	0.05620006707888649	1.8040108267716535	1.9125820416142998
76	count_finished = range2 [4.500 - 10.500]	percent_voted = range1 [-∞ - 0.500], count_voted = range1 [-∞ - 0.500]	0.12609970674486803	0.671875	0.948148148148148	-0.24926686217008798	0.05620006707888649	1.8040108267716535	1.9125820416142998
73	rating_topic = range1 [-∞ - 1.170]	rating_helpful = range1 [-∞ - 1.350]	0.13196480938416422	0.6617647058823529	0.943765281173594	-0.2668621700879765	0.08927511803304064	3.0912570507655115	2.323600663011603
72	rating_topic = range3 [2.040 - 3.900]	rating_helpful = range3 [1.775 - 2.930]	0.10557184750733138	0.6428571428571429	0.9496221662468513	-0.2228739002932551	0.07282359112838727	3.2237394957983194	2.241642228739003
71	count_enrolled = range5 [98 - ∞]	semester = b151	0.12903225806451613	0.6376811594202898	0.9390243902439023	-0.2756598240469208	0.024002201563454048	1.228526979448129	1.3273900293255132
70	count_voted = range5 [9.500 - ∞]	semester = b151	0.12609970674486803	0.6323529411764706	0.9388753056234718	-0.2727272727272727	0.022591824975705416	1.218261881023596	1.3081524926686217
69	count_finished = range5 [64.500 - ∞], count_enrolled = range5 [98 - ∞]	semester = b151	0.11143695014662756	0.6229508196721312	0.9427860696517412	-0.24633431085043989	0.018584291500761088	1.200148189311846	1.2755323218156318
68	count_finished = range5 [64.500 - ∞], count_voted = range5 [9.500 - ∞]	semester = b151	0.10557184750733138	0.6206896551724138	0.9448621553884711	-0.23460410557184747	0.01728571305716327	1.195791934541204	1.2679285523860304
67	rating_helpful = range1 [-∞ - 1.350]	rating_topic = range1 [-∞ - 1.170]	0.13196480938416422	0.6164383561643836	0.932367149758454	-0.2961876832844575	0.08927511803304064	3.0912570507655115	2.087243401759531
66	rating_work_during_semester = range1 [-∞ - 1.455]	semester = b151	0.12023460410557185	0.6119402985074627	0.9362745098039215	-0.2727272727272727	0.018248897068308678	1.1789358293279366	1.2393413038574328
65	percent_finished = range1 [-∞ - 40.500]	percent_voted = range1 [-∞ - 0.500]	0.12903225806451613	0.6111111111111112	0.9322033898305083	-0.2932551319648094	0.049775973718836256	1.6280381944444444	1.6062002513615417
64	rating_materials = range1 [-∞ - 1.610]	rating_helpful = range1 [-∞ - 1.350]	0.11436950146627566	0.609375	0.9382716049382714	-0.26099706744868034	0.07419096842992406	2.8465325342465753	2.0119648093841644
63	rating_topic = range2 [1.170 - 2.040]	semester = b151	0.14076246334310852	0.6075949367088608	0.9261904761904762	-0.32258064516129026	0.020510659523051936	1.1705642565972967	1.225617254753571
62	count_enrolled = range2 [9.500 - 19.500]	count_finished = range2 [4.500 - 10.500]	0.11143695014662756	0.6031746031746031	0.938118811881188	-0.25806451612903225	0.07676232574539263	3.2137896825396823	2.0470381231671553
60	percent_finished = range1 [-∞ - 40.500]	count_voted = range1 [-∞ - 0.500]	0.12609970674486803	0.5972222222222222	0.9297820823244551	-0.2961876832844575	0.04746261212063879	1.603565179352581	1.5580948528668217
61	percent_finished = range1 [-∞ - 40.500]	percent_voted = range1 [-∞ - 0.500], count_voted = range1 [-∞ - 0.500]	0.12609970674486803	0.5972222222222222	0.9297820823244551	-0.2961876832844575	0.04746261212063879	1.603565179352581	1.5580948528668217
59	rating_work_during_semester = range1 [-∞ - 1.455]	rating_difficulty = range1 [-∞ - 2.765]	0.11730205278592376	0.5970149253731343	0.9338235294117646	-0.2756598240469208	0.07696872231920951	2.908315565031983	1.9720864559574236
58	rating_helpful = range2 [1.350 - 1.775]	rating_topic = range2 [1.170 - 2.040]	0.10850439882697947	0.5967741935483871	0.9379652605459056	-0.25513196480938416	0.06638229805385232	2.5759493670886076	1.9054545454545455
57	count_finished = range5 [64.500 - ∞]	semester = b151	0.12023460410557185	0.5942028985507246	0.9317073170731706	-0.28445747800586507	0.015204547604509774	1.1447637763039384	1.1851696690406368
55	percent_voted = range3 [2.500 - 8.500]	semester = b142	0.11143695014662756	0.59375	0.9358024691358023	-0.26392961876832843	0.021172848530714383	1.2345655487804879	1.2776900518836003
56	count_finished = range2 [4.500 - 10.500]	count_enrolled = range2 [9.500 - 19.500]	0.11143695014662756	0.59375	0.9358024691358023	-0.26392961876832843	0.07676232574539263	3.2137896825396823	2.006767426122265
54	percent_finished = range2 [40.500 - 57.500]	semester = b142	0.12316715542521994	0.5915492957746479	0.9296116504854368	-0.2932551319648094	0.023030417695066252	1.2299896942631399	1.2708059460006067
53	count_finished = range3 [10.500 - 22.500]	count_enrolled = range3 [19.500 - 40.500]	0.11436950146627566	0.5909090909090909	0.9336609336609335	-0.2727272727272727	0.0757733421625201	2.963235294117647	1.956989247311828
50	count_enrolled = range4 [40.500 - 98]	semester = b142	0.11730205278592376	0.5882352941176471	0.9315403422982884	-0.281524926686217	0.02139644481901601	1.2230989956958394	1.2605781315458735
51	rating_topic = range1 [-∞ - 1.170]	rating_specifications = range1 [-∞ - 1.105]	0.11730205278592376	0.5882352941176471	0.9315403422982884	-0.281524926686217	0.07753631289720592	2.949826989619377	1.9442815249266863
52	rating_specifications = range1 [-∞ - 1.105]	rating_topic = range1 [-∞ - 1.170]	0.11730205278592376	0.5882352941176471	0.9315403422982884	-0.281524926686217	0.07753631289720592	2.949826989619377	1.9442815249266863
47	count_voted = range4 [3.500 - 9.500]	semester = b142	0.11436950146627566	0.582089552238806	0.9313725490196078	-0.2785923753665689	0.01987427008711655	1.2103203494721515	1.2420402178466694
48	count_voted = range4 [3.500 - 9.500]	count_finished = range4 [22.500 - 64.500]	0.11436950146627566	0.582089552238806	0.9313725490196078	-0.2785923753665689	0.07518855187003895	2.91900790166813	1.9156891495601174
49	count_voted = range4 [3.500 - 9.500]	count_enrolled = range4 [40.500 - 98]	0.11436950146627566	0.582089552238806	0.9313725490196078	-0.2785923753665689	0.07518855187003895	2.91900790166813	1.9156891495601174
46	count_finished = range3 [10.500 - 22.500]	semester = b142	0.11143695014662756	0.5757575757575758	0.9312039312039311	-0.2756598240469208	0.018352095355217105	1.1971544715447155	1.2235023041474655
42	rating_specifications = range2 [1.105 - 1.340]	semester = b151	0.11436950146627566	0.5735294117647058	0.9290953545232272	-0.28445747800586507	0.010861619697113037	1.1049351944167498	1.1277176660936394
43	count_finished = range4 [22.500 - 64.500]	count_voted = range4 [3.500 - 9.500]	0.11436950146627566	0.5735294117647058	0.9290953545232272	-0.28445747800586507	0.07518855187003895	2.91900790166813	1.884113661644251
44	count_enrolled = range4 [40.500 - 98]	count_voted = range4 [3.500 - 9.500]	0.11436950146627566	0.5735294117647058	0.9290953545232272	-0.28445747800586507	0.07518855187003895	2.91900790166813	1.884113661644251
45	count_enrolled = range3 [19.500 - 40.500]	count_finished = range3 [10.500 - 22.500]	0.11436950146627566	0.5735294117647058	0.9290953545232272	-0.28445747800586507	0.0757733421625201	2.963235294117647	1.8909899888765296
40	percent_finished = range4 [72.500 - 86.500]	semester = b151	0.11730205278592376	0.5714285714285714	0.9270072992700729	-0.2932551319648094	0.010749821552962224	1.1008878127522195	1.1221896383186705
41	rating_difficulty = range1 [-∞ - 2.765]	rating_work_during_semester = range1 [-∞ - 1.455]	0.11730205278592376	0.5714285714285714	0.9270072992700729	-0.2932551319648094	0.07696872231920951	2.908315565031983	1.8748778103616812
39	count_finished = range2 [4.500 - 10.500]	semester = b151	0.10557184750733138	0.5625	0.930864197530864	-0.2697947214076246	0.008152664665766557	1.083686440677966	1.0992878089652283
38	rating_specifications = range1 [-∞ - 1.105]	rating_helpful = range1 [-∞ - 1.350]	0.11143695014662756	0.5588235294117647	0.9266503667481661	-0.28739002932551316	0.068747258795504	2.6103948428686543	1.7814271749755621
36	count_enrolled = range2 [9.500 - 19.500]	semester = b151	0.10263929618768329	0.5555555555555556	0.9306930693069305	-0.2668621700879765	0.006742288078017911	1.0703075957313246	1.0821114369501466
37	rating_work_during_semester = range2 [1.455 - 2.055]	semester = b142	0.13196480938416422	0.5555555555555556	0.914691943127962	-0.343108504398827	0.01772430577652409	1.155149051490515	1.1678885630498534
35	percent_finished = range5 [86.500 - ∞]	semester = b151	0.10850439882697947	0.5522388059701493	0.926470588235294	-0.28445747800586507	0.006518691789716299	1.0639176996374062	1.0740957966764417
33	count_finished = range5 [64.500 - ∞]	semester = b151, count_enrolled = range5 [98 - ∞]	0.11143695014662756	0.5507246376811594	0.924390243902439	-0.29325513196480935	0.08532778355879292	4.268115942028985	1.9386056191467222
34	count_enrolled = range5 [98 - ∞]	semester = b151, count_finished = range5 [64.500 - ∞]	0.11143695014662756	0.5507246376811594	0.924390243902439	-0.29325513196480935	0.08710795400796346	4.580417108518911	1.958187494087598
31	rating_materials = range1 [-∞ - 1.610]	semester = b151	0.10263929618768329	0.546875	0.9283950617283949	-0.2727272727272727	0.005220113346118466	1.0535840395480225	1.0613813327940136
32	rating_materials = range1 [-∞ - 1.610]	rating_topic = range1 [-∞ - 1.170]	0.10263929618768329	0.546875	0.9283950617283949	-0.2727272727272727	0.06521271746889003	2.7424172794117645	1.7668116088583274
29	rating_helpful = range3 [1.775 - 2.930]	semester = b151	0.10850439882697947	0.5441176470588235	0.9242053789731051	-0.29032258064516125	0.004996517057816854	1.0482718511133267	1.0549616876359853
30	rating_topic = range1 [-∞ - 1.170]	semester = b142	0.10850439882697947	0.5441176470588235	0.9242053789731051	-0.29032258064516125	0.01259879086007172	1.1313665710186513	1.138586699460789
28	percent_voted = range1 [-∞ - 0.500]	semester = b151	0.20234604105571846	0.5390625	0.8742004264392323	-0.5483870967741935	0.007507675372588812	1.0385328389830508	1.0433918186788609
25	count_voted = range1 [-∞ - 0.500]	semester = b151	0.19941348973607037	0.5354330708661418	0.8739316239316239	-0.5454545454545454	0.006097298784840166	1.0315405489568041	1.035240320095432
26	count_voted = range1 [-∞ - 0.500]	semester = b151, percent_voted = range1 [-∞ - 0.500]	0.19941348973607037	0.5354330708661418	0.8739316239316239	-0.5454545454545454	0.12405294072118402	2.646125756019628	1.7169839455241314
27	percent_voted = range1 [-∞ - 0.500], count_voted = range1 [-∞ - 0.500]	semester = b151	0.19941348973607037	0.5354330708661418	0.8739316239316239	-0.5454545454545454	0.006097298784840166	1.0315405489568041	1.035240320095432
24	rating_helpful = range1 [-∞ - 1.350]	rating_materials = range1 [-∞ - 1.610]	0.11436950146627566	0.5342465753424658	0.9178743961352656	-0.31378299120234604	0.07419096842992406	2.8465325342465753	1.7440917716060031
23	percent_voted = range1 [-∞ - 0.500]	semester = b151, count_voted = range1 [-∞ - 0.500]	0.19941348973607037	0.53125	0.8720682302771855	-0.5513196480938416	0.12456033229848384	2.6640625	1.70791788856305
22	rating_specifications = range3 [1.340 - 2.045]	semester = b142	0.10263929618768329	0.5303030303030303	0.9238329238329237	-0.28445747800586507	0.00955444139627283	1.1026422764227641	1.105098855359001
16	rating_specifications = range1 [-∞ - 1.105]	semester = b142	0.10557184750733138	0.5294117647058824	0.9217603911980439	-0.29325513196480935	0.00966623954042363	1.1007890961262554	1.1030058651026393
17	count_enrolled = range3 [19.500 - 40.500]	semester = b142	0.10557184750733138	0.5294117647058824	0.9217603911980439	-0.29325513196480935	0.00966623954042363	1.1007890961262554	1.1030058651026393
18	rating_specifications = range2 [1.105 - 1.340]	rating_topic = range2 [1.170 - 2.040]	0.10557184750733138	0.5294117647058824	0.9217603911980439	-0.29325513196480935	0.05937341440132095	2.2851824274013404	1.6326979472140764
19	rating_specifications = range2 [1.105 - 1.340]	percent_voted = range4 [8.500 - 13.500]	0.10557184750733138	0.5294117647058824	0.9217603911980439	-0.29325513196480935	0.06112778527876438	2.375386996904025	1.6513929618768328
20	rating_helpful = range3 [1.775 - 2.930]	rating_topic = range3 [2.040 - 3.900]	0.10557184750733138	0.5294117647058824	0.9217603911980439	-0.29325513196480935	0.07282359112838727	3.2237394957983194	1.776026392961877
21	count_voted = range5 [9.500 - ∞]	semester = b151, count_finished = range5 [64.500 - ∞]	0.10557184750733138	0.5294117647058824	0.9217603911980439	-0.29325513196480935	0.08159544551560444	4.403156384505022	1.8695014662756597
15	count_finished = range1 [-∞ - 4.500]	semester = b151	0.11436950146627566	0.527027027027027	0.9156626506024095	-0.3196480938416422	0.0017285713057163254	1.0153458543289051	1.016841223292836
14	rating_materials = range2 [1.610 - 2.015]	semester = b151	0.12023460410557185	0.5256410256410257	0.9116945107398567	-0.33724340175953077	0.001504975017414728	1.0126756482688686	1.0138701751604977
13	count_finished = range5 [64.500 - ∞]	semester = b151, count_voted = range5 [9.500 - ∞]	0.10557184750733138	0.5217391304347826	0.9195121951219511	-0.29912023460410553	0.08005607106922026	4.137512639029323	1.827246067715276
10	count_enrolled = range1 [-∞ - 9.500]	semester = b151	0.11143695014662756	0.5205479452054794	0.9154589371980675	-0.31671554252199413	3.181947179676792E-4	1.0028635554523644	1.0031001256807708
11	rating_helpful = range1 [-∞ - 1.350]	semester = b142	0.11143695014662756	0.5205479452054794	0.9154589371980675	-0.31671554252199413	0.008479459240976595	1.082358837287003	1.0826141600335148
12	rating_helpful = range1 [-∞ - 1.350]	rating_specifications = range1 [-∞ - 1.105]	0.11143695014662756	0.5205479452054794	0.9154589371980675	-0.31671554252199413	0.068747258795504	2.6103948428686543	1.6697947214076245
7	count_finished = range4 [22.500 - 64.500]	semester = b142	0.10263929618768329	0.5147058823529411	0.9193154034229828	-0.29618768328445744	0.006733688220775538	1.0702116212338595	1.0695814449480139
8	count_voted = range5 [9.500 - ∞]	rating_topic = range2 [1.170 - 2.040]	0.10263929618768329	0.5147058823529411	0.9193154034229828	-0.29618768328445744	0.05644086308167286	2.221705137751303	1.5832222518439527
9	rating_topic = range1 [-∞ - 1.170]	rating_materials = range1 [-∞ - 1.610]	0.10263929618768329	0.5147058823529411	0.9193154034229828	-0.29618768328445744	0.06521271746889003	2.7424172794117645	1.6738647471785302
6	percent_finished = range1 [-∞ - 40.500]	semester = b151	0.10850439882697947	0.5138888888888888	0.9152542372881355	-0.31378299120234604	-0.001092181869780967	0.9900345260514752	0.9893590280687055
5	percent_voted = range4 [8.500 - 13.500]	semester = b142	0.11436950146627566	0.5131578947368421	0.9112709832134291	-0.3313782991202346	0.007180880797378761	1.0669929396662388	1.0661805500515178
4	rating_difficulty = range2 [2.765 - 3.030]	semester = b151	0.12023460410557185	0.5125	0.9073634204275534	-0.3489736070381232	-0.0015393744463841896	0.9873587570621469	0.9865403413790511
1	count_voted = range1 [-∞ - 0.500]	count_finished = range1 [-∞ - 4.500]	0.1906158357771261	0.5118110236220472	0.8675213675213674	-0.5542521994134897	0.10979437741333493	2.3584805277718663	1.6038690757733423
2	count_voted = range1 [-∞ - 0.500]	percent_voted = range1 [-∞ - 0.500], count_finished = range1 [-∞ - 4.500]	0.1906158357771261	0.5118110236220472	0.8675213675213674	-0.5542521994134897	0.1196240142413636	2.6850393700787403	1.6579320783274998
3	percent_voted = range1 [-∞ - 0.500], count_voted = range1 [-∞ - 0.500]	count_finished = range1 [-∞ - 4.500]	0.1906158357771261	0.5118110236220472	0.8675213675213674	-0.5542521994134897	0.10979437741333493	2.3584805277718663	1.6038690757733423